distance(mm) 	 DPK (Gy/Bq) 	 Uncertainty 
1e-12 	 2858681901129086.0 	 0
0.0005773502691896257 	 0.00857604570338728 	 0.0003877224357
0.0010140689945937029 	 0.0025432089604960407 	 0.00136417017
0.0010425371804588727 	 0.0024217055830755016 	 0.001346550161
0.0010718045600778938 	 0.0023109478954218606 	 0.001341693349
0.0011018935693959027 	 0.002127089946640217 	 0.001341352804
0.0011328272742073449 	 0.002022976181499504 	 0.001332432676
0.0011646293878378765 	 0.001982596703947217 	 0.001305414578
0.0011973242893226523 	 0.0018216919706337867 	 0.001304165183
0.0012309370420949398 	 0.001734319590134964 	 0.001299790016
0.0012654934131993737 	 0.0016395923069312931 	 0.001287120388
0.0013010198930446047 	 0.0015529029248321949 	 0.001281279398
0.001337543715710455 	 0.0014692124094865921 	 0.001264874169
0.0013750928798251624 	 0.0013919402746242425 	 0.00126495519
0.001413696170028723 	 0.0013162557282003129 	 0.001254734881
0.0014533831790387748 	 0.0012442762675750978 	 0.001247867093
0.0014941843303359471 	 0.0011993409308009935 	 0.001226540104
0.001536130901486038 	 0.0011052016208972378 	 0.001235218962
0.0015792550481169645 	 0.0010673328223632095 	 0.001221012851
0.0016235898285687756 	 0.001004940195934144 	 0.001213444062
0.0016691692292357028 	 0.0009429614309771038 	 0.001204871691
0.0017160281906196298 	 0.0009057092567186169 	 0.001189797495
0.001764202634114969 	 0.0008528742801045436 	 0.001188130998
0.0018137294895454806 	 0.0007994751613597556 	 0.001179547248
0.001864646723474132 	 0.0007511380074384127 	 0.001173467627
0.001916993368307711 	 0.0007183596620844949 	 0.001164828776
0.0019708095522184975 	 0.000686589039825698 	 0.001156632259
0.0020261365299059342 	 0.0006440244977180019 	 0.001155207228
0.0020830167142218774 	 0.0006141567129169059 	 0.001139524708
0.0021414937086836608 	 0.0005737670564144842 	 0.001135468069
0.0022016123408999254 	 0.0005468829997496528 	 0.001124575443
0.002263418696934807 	 0.0005205783670569104 	 0.001119105067
0.00232696015663682 	 0.00048716694089394395 	 0.001122746677
0.002392285429959594 	 0.0004615263182063225 	 0.001106633168
0.002459444594302164 	 0.00043812329058243047 	 0.001097462337
0.002528489132897621 	 0.0004152953095292956 	 0.001091413321
0.0025994719742793685 	 0.0003939456927101389 	 0.001087649575
0.0026724475328553715 	 0.00037266500111570643 	 0.001083956151
0.0027474717506214656 	 0.00035198545929704747 	 0.001076328323
0.0028246021400456416 	 0.00033658580379068465 	 0.001068246872
0.0029038978281562813 	 0.0003136757912652422 	 0.001069195677
0.0029854196018680775 	 0.00029956593512722957 	 0.00106279344
0.0030692299545803724 	 0.00028258935492800715 	 0.001064873656
0.0031553931340837036 	 0.00026599377407028087 	 0.001061630259
0.003243975191811211 	 0.00025337849636879634 	 0.001070596239
0.0033350440334727 	 0.00023864623474361102 	 0.001093466268
0.0034286694711101726 	 0.0002267057564436577 	 0.001085152582
0.0035249232766147004 	 0.00021571179666486772 	 0.001073907716
0.0036238792367457337 	 0.0002022997965795306 	 0.001067504412
0.003725613209694922 	 0.00019204436595700208 	 0.001060808468
0.0038302031832379148 	 0.00018163577817085184 	 0.001050207848
0.003937729334518646 	 0.00017185202650473578 	 0.001040029103
0.004048274091511952 	 0.00016246131642720735 	 0.001031766989
0.004161922196211658 	 0.0001539018276027907 	 0.001023405038
0.004278760769592553 	 0.00014650829337383586 	 0.001015561119
0.004398879378396053 	 0.00013823787246720147 	 0.001007657033
0.00452237010379074 	 0.0001304597409003704 	 0.001001371323
0.004649327611960473 	 0.00012377178694939408 	 0.0009896790459
0.004779849226674057 	 0.00011668750637425981 	 0.0009842543766
0.004914035003892273 	 0.00011074792265632568 	 0.0009780566151
0.005051987808469244 	 0.0001047496721136347 	 0.0009683944331
0.0051938133930072026 	 9.919338852583471e-05 	 0.0009607698544
0.005339620478924841 	 9.333413127633229e-05 	 0.0009548232655
0.005489520839801566 	 8.872409505296454e-05 	 0.0009481485592
0.00564362938706152 	 8.450085663745872e-05 	 0.0009387080769
0.0058020642580629425 	 7.928614056936532e-05 	 0.0009334932195
0.005964946906660607 	 7.521476065791693e-05 	 0.0009235247039
0.006132402196310524 	 7.14284277187862e-05 	 0.0009162906896
0.006304558495788431 	 6.759580512247403e-05 	 0.0009091959387
0.006481547777595486 	 6.365879856656253e-05 	 0.0009040636644
0.006663505719126365 	 6.0578575037149355e-05 	 0.0008959339116
0.006850571806677657 	 5.688914859562409e-05 	 0.0008869210177
0.007042889442375928 	 5.402618173940512e-05 	 0.0008797891193
0.007240606054107791 	 5.1248287884985424e-05 	 0.0008719280954
0.0074438732085358745 	 4.837051452885689e-05 	 0.0008672100365
0.007652846727287678 	 4.583788304904169e-05 	 0.0008613679063
0.00786768680640614 	 4.320029161641112e-05 	 0.0008558297253
0.008088558139153516 	 4.107658918526363e-05 	 0.0008479054353
0.008315630042262948 	 3.88603377866132e-05 	 0.0008440570378
0.008549076585734052 	 3.682879996470205e-05 	 0.0008357957188
0.008789076726272582 	 3.4711886750187446e-05 	 0.000828598217
0.009035814444475872 	 3.3032760271747025e-05 	 0.0008219297772
0.009289478885869812 	 3.1114143325147344e-05 	 0.0008171694241
0.009550264505904934 	 2.9430473047106435e-05 	 0.0008101597663
0.009818371219023172 	 2.7872185955638898e-05 	 0.0008042225392
0.01009400455190933 	 2.6312493200058903e-05 	 0.0007979185527
0.010377375801044848 	 2.5034199009406405e-05 	 0.0007939420536
0.010668702194684588 	 2.3607341522798583e-05 	 0.000789300704
0.010968207059380812 	 2.238711103758175e-05 	 0.0007812754022
0.01127611999118209 	 2.117117069390218e-05 	 0.0007771014794
0.01159267703163824 	 2.0048218735905872e-05 	 0.0007697367087
0.011918120848746343 	 1.8952021597846762e-05 	 0.0007627946157
0.012252700922976497 	 1.793044545326788e-05 	 0.0007591425472
0.012596673738519875 	 1.6999085117556515e-05 	 0.0007522619103
0.01295030297990573 	 1.6036277252924534e-05 	 0.0007479531105
0.013313859734138138 	 1.5229620061200003e-05 	 0.0007428196267
0.013687622698507342 	 1.437415463914912e-05 	 0.0007371287803
0.014071878394234969 	 1.3587556589410554e-05 	 0.0007311747353
0.014466921386117037 	 1.29073292225426e-05 	 0.0007249075404
0.014873054508333046 	 1.2174063540941415e-05 	 0.0007212733924
0.015290589096594141 	 1.1556580274637166e-05 	 0.0007150339493
0.015719845226808603 	 1.0909207471089969e-05 	 0.0007090813309
0.016161151960447356 	 1.0305782323636706e-05 	 0.0007036307749
0.016614847596797627 	 9.76899057465095e-06 	 0.0006989764143
0.017081279932298236 	 9.233704812769018e-06 	 0.0006910045692
0.01756080652715532 	 8.740232436855263e-06 	 0.000688835463
0.01805379497944266 	 8.27765639893568e-06 	 0.000682808172
0.018560623206897105 	 7.831137260159388e-06 	 0.0006789524287
0.019081679736624682 	 7.409171861014129e-06 	 0.0006736029622
0.01961736400293982 	 7.016648826893459e-06 	 0.0006698136585
0.020168086653565915 	 6.646628980278166e-06 	 0.0006645607538
0.02073426986443178 	 6.284743761423616e-06 	 0.0006602429372
0.02131634766330551 	 5.941629835722882e-06 	 0.000655307743
0.021914766262514047 	 5.622578501576507e-06 	 0.0006523083085
0.022529984401002685 	 5.3238771880752096e-06 	 0.0006453911032
0.023162473695997936 	 5.032888243287937e-06 	 0.000640680272
0.023812719004542213 	 4.774622942866583e-06 	 0.0006381552762
0.02448121879517823 	 4.507926167993346e-06 	 0.000632760495
0.025168485530067664 	 4.2694836057498114e-06 	 0.0006285648225
0.025875046057837144 	 4.037184340605007e-06 	 0.0006246002488
0.026601442017452716 	 3.8212138499288535e-06 	 0.0006194069886
0.027348230253432474 	 3.6152538284881003e-06 	 0.0006148829944
0.02811598324271513 	 3.4176850186377095e-06 	 0.0006108507352
0.02890528953351271 	 3.2362251731045465e-06 	 0.0006072565905
0.029716754196482995 	 3.0664699622494883e-06 	 0.0006032560443
0.03055099928856766 	 2.8968637347838364e-06 	 0.0005982604054
0.03140866432985221 	 2.7406632693455004e-06 	 0.0005951921473
0.03229040679381269 	 2.59332938638581e-06 	 0.0005904561892
0.03319690261132504 	 2.454399328261417e-06 	 0.0005862769031
0.03412884668882424 	 2.3248529485965737e-06 	 0.0005824661782
0.03508695344100887 	 2.2011309858030152e-06 	 0.0005784469279
0.03607195733850148 	 2.0797686830644782e-06 	 0.0005749846262
0.037084613470882655 	 1.9692072325293826e-06 	 0.0005713836591
0.03812569812553186 	 1.8605241954981191e-06 	 0.0005662281149
0.03919600938271788 	 1.7596672184756968e-06 	 0.0005623293566
0.04029636772739567 	 1.6687011675296657e-06 	 0.0005596004248
0.04142761667817765 	 1.577708151829638e-06 	 0.0005552390535
0.042590623433963436 	 1.4933523962848668e-06 	 0.0005520264455
0.04378627953872121 	 1.4117308095322954e-06 	 0.0005489599429
0.04501550156493254 	 1.3364266496789e-06 	 0.0005452856331
0.046279231816223544 	 1.264130021358243e-06 	 0.000541058477
0.047578439049720894 	 1.1962149921979506e-06 	 0.0005377499879
0.04891411921868685 	 1.1332056407273382e-06 	 0.000534148467
0.050287296236002754 	 1.0714077842123582e-06 	 0.000530273876
0.051699022759085 	 1.0134436085050677e-06 	 0.0005275896115
0.05315038099683785 	 9.599531613283557e-07 	 0.0005247518849
0.054642483539257804 	 9.079364553067443e-07 	 0.000520355072
0.05617647421032976 	 8.582013929086507e-07 	 0.0005162356847
0.05775352894486522 	 8.126812925702523e-07 	 0.0005137934906
0.05937485668995676 	 7.685394297730943e-07 	 0.0005097034997
0.061041700331739404 	 7.275443277847477e-07 	 0.000506462722
0.06275533764816897 	 6.884465897177838e-07 	 0.0005040171467
0.06451708228854756 	 6.520178941337819e-07 	 0.0005013028876
0.06632828478054832 	 6.164390539386931e-07 	 0.0004971677091
0.06819033356551002 	 5.837655053513532e-07 	 0.0004946597789
0.07010465606279591 	 5.52487202994259e-07 	 0.0004919937713
0.07207271976403262 	 5.219872841437726e-07 	 0.0004874596856
0.07409603335806751 	 4.943816520853589e-07 	 0.000484972001
0.07617614788750784 	 4.6763836556606266e-07 	 0.0004816916158
0.07831465793772688 	 4.423468620544034e-07 	 0.0004779254476
0.08051320285925034 	 4.1897585224746867e-07 	 0.0004757087156
0.08277346802445794 	 3.967276856015263e-07 	 0.0004744249526
0.08509718611956547 	 3.748567766537187e-07 	 0.0004699922264
0.08748613847287692 	 3.551537890040921e-07 	 0.0004676147083
0.08994215642032394 	 3.360643927109861e-07 	 0.0004653250437
0.09246712270934251 	 3.179987541620237e-07 	 0.0004620111045
0.09506297294215788 	 3.0063151193183374e-07 	 0.0004589071399
0.09773169705959064 	 2.8432613604841176e-07 	 0.0004555134428
0.10047534086651475 	 2.6954726103415776e-07 	 0.0004542535098
0.10329600760014293 	 2.549792908833655e-07 	 0.0004506914859
0.10619585954233653 	 2.4113789411502944e-07 	 0.0004485849361
0.10917711967717972 	 2.2821812747288724e-07 	 0.0004459708553
0.11224207339508625 	 2.158465094921156e-07 	 0.000442734214
0.11539307024474688 	 2.043917789223514e-07 	 0.0004408053176
0.11863252573425853 	 1.9345736459536972e-07 	 0.0004387949055
0.12196292318281714 	 1.8293096596918496e-07 	 0.0004349630938
0.1253868156243951 	 1.7314988537825703e-07 	 0.0004328030713
0.12890682776485812 	 1.6391372573669328e-07 	 0.0004307831921
0.13252565799402774 	 1.5504088969977586e-07 	 0.0004280334609
0.13624608045422681 	 1.467479176219609e-07 	 0.0004258935797
0.14007094716689644 	 1.3875571661231859e-07 	 0.0004230534917
0.14400319021891395 	 1.3133024030376382e-07 	 0.0004202504229
0.14804582401028824 	 1.2425047752816406e-07 	 0.0004182420739
0.152201947564954 	 1.1763433488014107e-07 	 0.0004159244626
0.1564747469064383 	 1.1128678201946636e-07 	 0.0004139141933
0.1608674975002209 	 1.053409231816432e-07 	 0.0004119641305
0.16538356676465577 	 9.967927441967983e-08 	 0.0004096622983
0.1700264166523866 	 9.427105734967465e-08 	 0.0004067561854
0.1747996063042292 	 8.929038706057174e-08 	 0.0004046963895
0.1797067947775549 	 8.444796930201405e-08 	 0.0004024887831
0.18475174385127258 	 7.991912939244353e-08 	 0.0004008865018
0.18993832090955198 	 7.563339304480092e-08 	 0.0003986355338
0.19527050190650452 	 7.154323913871137e-08 	 0.0003962720716
0.2007523744140914 	 6.776012503183864e-08 	 0.0003944327852
0.2063881407555956 	 6.405633337954386e-08 	 0.0003926358078
0.21218212122706373 	 6.063984870948791e-08 	 0.0003904333285
0.21813875740917898 	 5.737237858153693e-08 	 0.0003887329795
0.22426261557211344 	 5.428341362630418e-08 	 0.0003864098871
0.2305583901759648 	 5.132841738349041e-08 	 0.0003844999923
0.23703090746945854 	 4.856402845538737e-08 	 0.0003827876411
0.24368512918968196 	 4.5929766179100345e-08 	 0.0003808428728
0.2505261563656769 	 4.3492115445385716e-08 	 0.0003794299533
0.2575592332288169 	 4.1127038983787985e-08 	 0.0003767878203
0.26478975123295573 	 3.893505252291589e-08 	 0.0003755886388
0.2722232531874372 	 3.686469219613458e-08 	 0.0003740743284
0.27986543750613474 	 3.4856028787555975e-08 	 0.0003721989713
0.2877221625757675 	 3.2980005159049534e-08 	 0.0003706503064
0.29579945124685747 	 3.1175678690704325e-08 	 0.0003688811419
0.3041034954507576 	 2.949288056126342e-08 	 0.0003674228669
0.3126406609462952 	 2.7876901252322714e-08 	 0.0003658551278
0.3214174921996703 	 2.6372021056878097e-08 	 0.0003644643968
0.330440717401347 	 2.4939706652978214e-08 	 0.0003630911702
0.3397172536237868 	 2.3592777782189736e-08 	 0.00036202271
0.349254212123974 	 2.2315643296581044e-08 	 0.0003605903517
0.3590589037948031 	 2.1110908719281622e-08 	 0.0003587536963
0.36913884476949926 	 1.9955462869180315e-08 	 0.0003575614947
0.37950176218338094 	 1.8880449923646212e-08 	 0.0003564108634
0.39015560009736255 	 1.7860872659654452e-08 	 0.0003547222889
0.4011085255877614 	 1.6884128277390123e-08 	 0.0003530152459
0.41236893500705474 	 1.5973101765544962e-08 	 0.0003523538635
0.42394546042040376 	 1.5109178688018837e-08 	 0.0003507989676
0.43584697622286445 	 1.4290345026274036e-08 	 0.0003497487751
0.44808260594237503 	 1.351356457786174e-08 	 0.0003486278177
0.4606617292337123 	 1.2781934096669804e-08 	 0.0003478121109
0.47359398906880396 	 1.2082118069625086e-08 	 0.0003463064895
0.4868892991288847 	 1.141829793148562e-08 	 0.000344913933
0.5005578514041831 	 1.0804458730898147e-08 	 0.0003440495159
0.5146101240069497 	 1.0212343180745954e-08 	 0.0003430478724
0.5290568892038261 	 9.654744965692377e-09 	 0.0003424486252
0.5439092216737064 	 9.127882877625226e-09 	 0.0003413339879
0.559178506997424 	 8.630884329468553e-09 	 0.0003404962695
0.5748764503857717 	 8.15837566945446e-09 	 0.0003393652281
0.591015085652545 	 7.716395612270862e-09 	 0.0003388774514
0.6076067844394867 	 7.29309086053113e-09 	 0.000337827473
0.6246642657002089 	 6.896369080117047e-09 	 0.0003374164369
0.6422006054503538 	 6.518969720878152e-09 	 0.000336604503
0.6602292467914788 	 6.160895072308455e-09 	 0.0003356040734
0.6787640102163399 	 5.8231970072162296e-09 	 0.0003349201202
0.6978191042034785 	 5.501972695467102e-09 	 0.0003340187993
0.7174091361092363 	 5.201059084565484e-09 	 0.0003333560753
0.7375491233655387 	 4.915907172683911e-09 	 0.0003329318505
0.7582545049920374 	 4.645984762541424e-09 	 0.0003322831445
0.7795411534314415 	 4.391140257069813e-09 	 0.0003320088143
0.8014253867170933 	 4.148326648940715e-09 	 0.0003313779952
0.8239239809821393 	 3.9182477897062645e-09 	 0.0003309809821
0.8470541833198684 	 3.7009101111209903e-09 	 0.0003307579255
0.8708337250050783 	 3.495098344870381e-09 	 0.000330093574
0.8952808350866125 	 3.303736833082536e-09 	 0.0003302461902
0.9204142543614822 	 3.1188064049642074e-09 	 0.0003296236804
0.9462532497412912 	 2.9458526972645647e-09 	 0.0003295672241
0.9728176290219623 	 2.7804821806361194e-09 	 0.0003293133627
1.0001277560681074 	 2.624807675671139e-09 	 0.000329164151
1.028204566423668 	 2.477743018085409e-09 	 0.0003287486652
1.057069583360798 	 2.3385860524126413e-09 	 0.0003289823586
1.086744934379284 	 2.208109123909895e-09 	 0.0003289952406
1.117253368169174 	 2.0832831549211825e-09 	 0.0003294388137
1.1486182720495743 	 1.9647648527073527e-09 	 0.0003292004925
1.1808636898970437 	 1.8540456080474676e-09 	 0.0003292256704
1.2140143405772645 	 1.7482976816814746e-09 	 0.0003296805605
1.2480956368941707 	 1.6490268070678779e-09 	 0.0003299388319
1.2831337050710274 	 1.554270195162327e-09 	 0.0003301740298
1.3191554047784122 	 1.4653749357180513e-09 	 0.0003305983691
1.3561883497244536 	 1.3813359230307392e-09 	 0.0003312728176
1.3942609288230805 	 1.3017909616474551e-09 	 0.0003318447653
1.433402327956559 	 1.2263542385756648e-09 	 0.0003324602972
1.4736425523489678 	 1.1552311727636377e-09 	 0.0003330428136
1.5150124495677484 	 1.087902459112679e-09 	 0.0003339516939
1.5575437331710096 	 1.0245380440579485e-09 	 0.0003349952995
1.6012690070186832 	 9.64227890190934e-10 	 0.0003360702066
1.646221790266144 	 9.066836207786529e-10 	 0.0003369770871
1.6924365430595338 	 8.529571160902937e-10 	 0.0003381067873
1.7399486929523815 	 8.019158923725146e-10 	 0.0003392707484
1.7887946620638535 	 7.538366220103018e-10 	 0.0003404610331
1.8390118949994292 	 7.086065161150462e-10 	 0.0003420408324
1.8906388875553715 	 6.660695204204994e-10 	 0.000344043851
1.9437152162290527 	 6.249644563707808e-10 	 0.0003454867072
1.9982815685577089 	 5.863329628452378e-10 	 0.0003468592148
2.054379774308921 	 5.502542885769869e-10 	 0.0003490972211
2.1120528375466976 	 5.158640178682753e-10 	 0.0003510978912
2.1713449695977594 	 4.834492558525512e-10 	 0.000353390028
2.232301622943301 	 4.530630898058688e-10 	 0.0003557654927
2.294969526062192 	 4.241939389064457e-10 	 0.0003581818344
2.3593967192523504 	 3.969284479860147e-10 	 0.0003610707678
2.425632591457732 	 3.7111430606670546e-10 	 0.0003637198571
2.4937279181291654 	 3.467752667275306e-10 	 0.0003668381014
2.5637349001480843 	 3.238938807186592e-10 	 0.0003700268694
2.6357072038429417 	 3.0223510087720325e-10 	 0.0003736787815
2.7097000021290487 	 2.818510367232668e-10 	 0.0003770348804
2.785770016803315 	 2.6263561022064394e-10 	 0.0003810704256
2.8639755620263445 	 2.4456181449631706e-10 	 0.0003852909995
2.9443765890252416 	 2.2739522629690703e-10 	 0.0003896724484
3.0270347320513045 	 2.1122824230183643e-10 	 0.0003943226197
3.112013355627984 	 1.959647766197391e-10 	 0.000399302128
3.199377603125169 	 1.8171181660362988e-10 	 0.0004048166893
3.2891944466971625 	 1.6820042170967627e-10 	 0.0004107633887
3.381532738622526 	 1.5553884769418046e-10 	 0.0004167972393
3.4764632640852766 	 1.4359830939234546e-10 	 0.0004233852851
3.574058795437724 	 1.3228959481775003e-10 	 0.0004306999045
3.674394147986719 	 1.2182542527136086e-10 	 0.0004382207634
3.7775462373459723 	 1.1191616986468827e-10 	 0.0004464892973
3.8835941383984296 	 1.0253555500313535e-10 	 0.0004550165349
3.9926191459139235 	 9.386956382854768e-11 	 0.0004644801637
4.1047048368685575 	 8.570448100730856e-11 	 0.0004747493808
4.2199371345136125 	 7.80952221900308e-11 	 0.0004858932236
4.338404374242988 	 7.090813544979294e-11 	 0.0004977478732
4.46019737130992 	 6.418041273105261e-11 	 0.0005101438664
4.585409490444539 	 5.8007286267413655e-11 	 0.0005244916073
4.714136717425961 	 5.218908874763704e-11 	 0.0005396818992
4.846477732663563 	 4.682222590197388e-11 	 0.0005564445071
4.98253398684393 	 4.181681706557284e-11 	 0.0005746894297
5.12240977870149 	 3.720272505309006e-11 	 0.0005950533693
5.2662123349723915 	 3.2944734939300224e-11 	 0.000616913902
5.414051892592934 	 2.9033374704750817e-11 	 0.000641655241
5.566041783205616 	 2.542285005448857e-11 	 0.0006683823997
5.722298520037493 	 2.213601829893599e-11 	 0.0006989507081
5.882941887217534 	 1.914268075604218e-11 	 0.0007328292018
6.048095031601366 	 1.6447945745158128e-11 	 0.0007716858034
6.217884557173858 	 1.398293856160575e-11 	 0.0008141472607
6.392440622101875 	 1.1818549772334884e-11 	 0.0008642266682
6.571897038511663 	 9.873912636597027e-12 	 0.0009206310826
6.756391375067193 	 8.152887060311664e-12 	 0.0009849888832
6.946065062428389 	 6.654815772281369e-12 	 0.001061433571
7.141063501669693 	 5.370491174450556e-12 	 0.001149962274
7.341536175742487 	 4.261381526096532e-12 	 0.00125420115
7.547636764066497 	 3.3247629785468315e-12 	 0.00137998372
7.759523260338202 	 2.5383911713743304e-12 	 0.001531632566
7.9773580936464885 	 1.899385565443552e-12 	 0.001717763163
8.201308252988389 	 1.3896713398009992e-12 	 0.001945574847
8.431545415280453 	 9.835592772442453e-13 	 0.002236982593
8.668246076963726 	 6.760238687533881e-13 	 0.002610908486
8.911591689303355 	 4.482661947017619e-13 	 0.003098844922
9.161768797486436 	 2.8619662160998924e-13 	 0.00374804491
9.418969183624911 	 1.7304457627043404e-13 	 0.004624337119
9.683390013772838 	 9.865501640917727e-14 	 0.005874232329
9.955233989071044 	 5.3035255169379414e-14 	 0.007642340807
10.234709501134892 	 2.7185949788367153e-14 	 0.01008470894
10.52203079180411 	 1.3177048033297917e-14 	 0.01322524782
10.81741811737769 	 6.721582884785135e-15 	 0.01652223045
11.121097917458883 	 3.7518112510325506e-15 	 0.0183330557
11.433302988540692 	 2.665685773908094e-15 	 0.01749035042
11.75427266246409 	 2.2002969926987267e-15 	 0.01656885061
12.084252989886457 	 2.0406331960665017e-15 	 0.01667872514
12.423496928900335 	 1.894989191582629e-15 	 0.01702905782
12.772264538947443 	 1.7575123415750801e-15 	 0.01759668441
13.130823180176334 	 1.6193881503848073e-15 	 0.01708553454
13.499447718396926 	 1.557623141304372e-15 	 0.01724572646
13.878420735788545 	 1.4251868414667072e-15 	 0.01713933478
14.26803274752328 	 1.3669018041880502e-15 	 0.01666057733
14.668582424470593 	 1.2538351908610192e-15 	 0.01629065284
15.08037682215426 	 1.1951401221908242e-15 	 0.01696288243
15.503731616136381 	 1.1002558786006395e-15 	 0.0168088499
15.93897134400983 	 1.034394432244994e-15 	 0.01719012296
16.386429654183978 	 9.543076236172747e-16 	 0.01653697509
16.84644956165462 	 9.248103942968783e-16 	 0.01676144688
17.319383710954302 	 8.731192508364463e-16 	 0.01653819292
17.805594646484597 	 7.90346893834057e-16 	 0.01659547662
18.305455090437004 	 7.512709297411744e-16 	 0.01615770107
18.819348228516695 	 7.33953761912422e-16 	 0.01637369505
19.347668003686838 	 6.736847375483969e-16 	 0.01680768451
19.890819418159605 	 6.252456410459695e-16 	 0.01662877612
20.449218843864948 	 5.811102574115813e-16 	 0.01650002523
21.023294341635086 	 5.419008515635318e-16 	 0.01601762916
21.613485989349957 	 5.131405241837514e-16 	 0.01617943385
22.220246219294282 	 4.826220723865834e-16 	 0.01594818344
22.844040164985454 	 4.713512028158088e-16 	 0.01619372008
23.48534601773837 	 4.36268289908989e-16 	 0.0159842991
24.14465539323964 	 4.0687478123964085e-16 	 0.01587042046
24.82247370841315 	 3.788832683464198e-16 	 0.01578533447
25.51932056886523 	 3.6346754975902717e-16 	 0.01593384198
26.235730167206594 	 3.432440237006372e-16 	 0.01574025578
26.972251692556757 	 3.165888374522927e-16 	 0.01577715279
27.729449751544305 	 2.968372164163077e-16 	 0.01474961091
28.507904801126156 	 2.809888439991146e-16 	 0.01535351176
29.308213593557195 	 2.6147722838123515e-16 	 0.01522634507
30.130989633851904 	 2.506992910015885e-16 	 0.0149406292
30.97686365008853 	 2.3700371454734558e-16 	 0.01504262594
31.846484076915647 	 2.1581861808564585e-16 	 0.01507059634
32.740517552633 	 2.0955469559277852e-16 	 0.01467090964
33.65964943022642 	 1.912971706459548e-16 	 0.014673206
34.604584302749615 	 1.8350832367791242e-16 	 0.01460280988
35.57604654345476 	 1.7478650538780201e-16 	 0.01464468498
36.57478086108646 	 1.6475094857059177e-16 	 0.01440535331
37.60155287076458 	 1.5699608365618556e-16 	 0.01450264561
38.65714968089366 	 1.4369876360354879e-16 	 0.01375152794
39.74238049654862 	 1.376175615554906e-16 	 0.01446951928
40.858077239799734 	 1.2643661463997225e-16 	 0.01403890419
42.00509518745133 	 1.175499188599916e-16 	 0.01358301825
43.18431362668548 	 1.1343000550137916e-16 	 0.01367471319
44.396636529109664 	 1.0698511595025241e-16 	 0.01380550609
45.64299324372892 	 1.0077352574723009e-16 	 0.01364755754
46.924339209370864 	 9.322327696936836e-17 	 0.01306878807
48.241656687110904 	 8.685093441986629e-17 	 0.01312970306
49.59595551325992 	 8.61833436947473e-17 	 0.01331964547
50.98827387348936 	 7.796843878065375e-17 	 0.01264803341
52.41967909868928 	 7.372624967442578e-17 	 0.01278680966
53.89126848316889 	 7.017196996505572e-17 	 0.01300961207
55.40417012582611 	 6.548516087096358e-17 	 0.01265195769
56.9595437949318 	 6.227744041809313e-17 	 0.01237621547
58.55858181719094 	 5.907431822111261e-17 	 0.01267354496
60.20250999176293 	 5.5416233328113696e-17 	 0.0128072381
61.89258852994156 	 5.174295561276652e-17 	 0.01230687841
63.63011302121428 	 4.7862268552104826e-17 	 0.01216579094
65.41641542644214 	 4.494383244393616e-17 	 0.01199498498
67.25286509892145 	 4.16744469361559e-17 	 0.01154864357
69.14086983411042 	 4.001474249594334e-17 	 0.01204904419
71.08187694882409 	 3.8042028796732406e-17 	 0.01144133866
73.07737439072652 	 3.4863033542756007e-17 	 0.01147703333
75.12889187896933 	 3.3100105673942247e-17 	 0.01168564018
77.23800207685247 	 3.134508783130078e-17 	 0.01153587418
79.4063217974048 	 2.973602045623228e-17 	 0.01211536307
81.63551324280908 	 2.764583517832248e-17 	 0.01099779193
83.92728527862205 	 2.6840036043293133e-17 	 0.01146408761
86.28339474376564 	 2.455251618185144e-17 	 0.01143098084
88.70564779729418 	 2.3006686711262257e-17 	 0.01081057442
91.19590130296969 	 2.1110769030444883e-17 	 0.01070894275
93.7560642527054 	 1.9722364766913317e-17 	 0.01080848586
96.38809922997258 	 1.890597053169934e-17 	 0.0108966674
99.09402391428718 	 1.7586288940122713e-17 	 0.01082225185
101.87591262793416 	 1.6301012413988804e-17 	 0.01039744538
104.73589792611178 	 1.532596379742893e-17 	 0.01040645853
107.67617223171817 	 1.4714065511261826e-17 	 0.01056069676
110.69898951602995 	 1.3422088938978353e-17 	 0.01070518079
113.806667026564 	 1.2373976120992484e-17 	 0.01024650676
117.00158706344561 	 1.1699312757568224e-17 	 0.01036868721
120.2861988056442 	 1.0890857680989167e-17 	 0.01039878104
123.6630201884788 	 1.0304073331395403e-17 	 0.01033226291
127.13463983383092 	 9.410935458433592e-18 	 0.01015846035
130.70371903454247 	 8.814589687052506e-18 	 0.009944148753
134.37299379452577 	 8.331637988071956e-18 	 0.01024933615
138.14527692614288 	 7.609836982887607e-18 	 0.01000068102
142.02346020646732 	 7.061284714869299e-18 	 0.009945256746
146.01051659407753 	 6.388459068745755e-18 	 0.009887790366
150.10950250808332 	 6.145738258415183e-18 	 0.00982538195
154.3235601711326 	 5.701312847881547e-18 	 0.01001725718
158.65592001819263 	 5.238456340137649e-18 	 0.009951939379
163.10990317295548 	 4.8008982595055544e-18 	 0.009932850133
167.68892399376043 	 4.518509375788405e-18 	 0.009855501095
172.39649269099434 	 4.1352120233389834e-18 	 0.01011255466
177.23621801796457 	 3.7799187966024355e-18 	 0.009864872301
182.21181003731903 	 3.5066923409296295e-18 	 0.009897695656
187.3270829651239 	 3.153751571532806e-18 	 0.009805075362
192.58595809478683 	 2.9400567284089496e-18 	 0.009815406229
197.99246680306328 	 2.7386884226257184e-18 	 0.01040942699
203.5507536404507 	 2.4968427577534577e-18 	 0.01009713215
209.26507950834056 	 2.312799229578531e-18 	 0.01015455875
215.13982492536203 	 2.0982269885350373e-18 	 0.01020531313
221.17949338542482 	 1.8906712672600825e-18 	 0.009913036388
227.38871481003116 	 1.753189665300209e-18 	 0.01019144457
233.77224909750595 	 1.5936963875399474e-18 	 0.01027496649
240.3349897718653 	 1.4458661049200862e-18 	 0.01105702222
247.08196773411927 	 1.2940162185421074e-18 	 0.01046267115
254.01835511888999 	 1.2124892998774827e-18 	 0.01102139764
261.14946925929047 	 1.0825602423865665e-18 	 0.01115455744
268.4807767631187 	 9.59697772544777e-19 	 0.01085006251
276.0178977034742 	 8.947650915727413e-19 	 0.01132599522
283.7666099270284 	 8.168355431900388e-19 	 0.01193945797
291.7328534832356 	 7.234833644105017e-19 	 0.01151505368
299.9227351778879 	 6.475874370357916e-19 	 0.01196229514
308.3425332545019 	 5.866113202249742e-19 	 0.01233281115
316.9987022071316 	 5.132013704523586e-19 	 0.01257710976
325.89787772828583 	 4.58357940576084e-19 	 0.01242259443
335.04688179575606 	 4.0785993354485246e-19 	 0.01246218312
344.452727902242 	 3.632101246758643e-19 	 0.01362545252
354.1226264317937 	 3.241677674931935e-19 	 0.01341904701
364.0639901871869 	 2.9653018018016175e-19 	 0.01428554117
374.28444007247 	 2.5571164587471375e-19 	 0.01419643607
384.7918109350349 	 2.240611342651941e-19 	 0.01469986598
395.59415757169785 	 2.010702354941026e-19 	 0.01554304801
406.6997609033905 	 1.74026584891885e-19 	 0.01603172231
418.11713432319067 	 1.533307355984755e-19 	 0.0168062246
429.8550302225659 	 1.3411929478048244e-19 	 0.01757665276
441.9224467008273 	 1.1970676064394088e-19 	 0.01810184063
454.32863446294294 	 1.0058749840177296e-19 	 0.01900518974
467.08310391099275 	 8.604440566395572e-20 	 0.01887198655
480.1956324347016 	 7.423640002989897e-20 	 0.02091241894
493.6762719066444 	 6.350455603900947e-20 	 0.02052948225
507.5353563878667 	 5.785591630225294e-20 	 0.02293168674
521.7835100498213 	 4.8341412531271855e-20 	 0.02267482324
536.4316553187043 	 3.991132863722845e-20 	 0.02447750949
551.4910212484283 	 3.453719009935693e-20 	 0.02618416754
566.9731521286471 	 2.68729225147935e-20 	 0.02760678044
582.8899163344461 	 2.0488891930453788e-20 	 0.03181966719
599.2535154244576 	 1.5327503905298747e-20 	 0.03646096445
616.0764934944012 	 1.187145892632398e-20 	 0.0411405836
633.3717467932041 	 9.07383221977866e-21 	 0.04535152697
651.1525336090751 	 7.024009114636208e-21 	 0.05085490712
669.4324844331188 	 4.956144067973276e-21 	 0.05816552652
688.2256124082614 	 3.809299117464416e-21 	 0.06871959139
707.5463240715334 	 2.382647732779687e-21 	 0.0725218666
727.4094303978983 	 1.6325577451546937e-21 	 0.09483586758
747.8301581541414 	 9.709632775815371e-22 	 0.1023633023
768.8241615714747 	 6.421781700342458e-22 	 0.1170019417
790.4075343458476 	 3.3451390627791057e-22 	 0.1726335595
812.5968219751394 	 1.0425803382065157e-22 	 0.2272054486
835.4090344426987 	 1.3322994077227017e-22 	 0.4067994093
858.8616592569362 	 3.2737619162757154e-23 	 0.6853180631
882.9726748570033 	 5.1712651683006e-24 	 0.4702336094
907.7605643948015 	 3.601871764197488e-23 	 0.9956370687
933.2443299038894 	 3.091342640893959e-23 	 1.0
959.4435068661668 	 5.171265168300575e-25 	 1.0
986.378179187492 	 5.171265168300612e-25 	 1.0
